Create a data codebook — codebook • adlgraphs
…
# view the codebook
test_data_codebook
#> # A tibble: 46 × 15
#>      pos variable      label levels value_labels transformation question_preface
#>    <int> <chr>         <chr> <name> <chr>        <named list>   <chr>           
#>  1     1 resp_id       Uniq… <NULL> ""           <NULL>          NA             
#>  2     2 wts           Surv… <NULL> ""           <NULL>          NA             
#>  3     3 edu           What… <NULL> "1 = ''Less… <NULL>          NA             
#>  4     4 pid_f3        Poli… <chr>  ""           <NULL>          NA             
#>  5     5 pol_part_ral… Atte… <NULL> ""           <NULL>         "In the last tw…
#>  6     6 pol_part_wor… Work… <NULL> ""           <NULL>         "In the last tw…
#>  7     7 pol_part_con… Cont… <NULL> ""           <NULL>         "In the last tw…
#>  8     8 pol_part_mon… Cont… <NULL> ""           <NULL>         "In the last tw…
#>  9     9 pol_part_soc… Publ… <NULL> ""           <NULL>         "In the last tw…
#> 10    10 pol_part_att… Atte… <NULL> ""           <NULL>         "In the last tw…
#> # ℹ 36 more rows
#> # ℹ 8 more variables: survey_flow <named list>, note <named list>,
#> #   col_type <chr>, class <named list>, type <chr>, missing <int>,
#> #   unique_values <int>, range <named list>
…
