Get correlations for a combination of variables — get_all_corr • adlgraphs
…
# You can also use multiple grouping variables
get_all_corr(test_data, c(top:dominate), c(edu_f2, pid_f3), wts)
#> # A tibble: 36 × 10
#>    edu_f2       pid_f3 x          y         correlation     n conf.low conf.high
#>    <fct>        <fct>  <chr+lbl>  <chr+lbl>       <dbl> <int>    <dbl>     <dbl>
#>  1 No College … Democ… inf… [Som… top [An …       0.514    52    0.27      0.757
#>  2 No College … Indep… inf… [Som… top [An …       0.446    40    0.152     0.74 
#>  3 No College … Repub… inf… [Som… top [An …       0.521    50    0.274     0.769
#>  4 At Least a … Democ… inf… [Som… top [An …       0.333    46    0.046     0.619
#>  5 At Least a … Indep… inf… [Som… top [An …       0.729    17    0.352     1.11 
#>  6 At Least a … Repub… inf… [Som… top [An …       0.571    45    0.318     0.823
#>  7 No College … Democ… dom… [No … top [An …      -0.05     52   -0.334     0.233
#>  8 No College … Indep… dom… [No … top [An …      -0.301    40   -0.614     0.013
#>  9 No College … Repub… dom… [No … top [An …       0.044    50   -0.246     0.334
#> 10 At Least a … Democ… dom… [No … top [An …      -0.227    46   -0.523     0.069
#> # ℹ 26 more rows
#> # ℹ 2 more variables: p_value <dbl>, stars <chr>
…
