Calculate weighted frequencies — get_freqs • adlgraphs
…
# you can also group by two or more variables
get_freqs(test_data, big_events, group = c(pid_f3, edu_f2), wt = wts)
#> # A tibble: 24 × 5
#> # Groups:   pid_f3, edu_f2 [6]
#>    pid_f3      edu_f2                       big_events            n   pct
#>    <fct>       <fct>                        <fct>             <dbl> <dbl>
#>  1 Democrat    No College Degree            Strongly agree    14.1  0.203
#>  2 Democrat    No College Degree            Somewhat agree    16.4  0.236
#>  3 Democrat    No College Degree            Somewhat disagree 27.9  0.401
#>  4 Democrat    No College Degree            Strongly disagree 11.2  0.160
#>  5 Democrat    At Least a Bachelor's Degree Strongly agree     8.01 0.183
#>  6 Democrat    At Least a Bachelor's Degree Somewhat agree     6.16 0.141
#>  7 Democrat    At Least a Bachelor's Degree Somewhat disagree 13.2  0.302
#>  8 Democrat    At Least a Bachelor's Degree Strongly disagree 16.3  0.373
#>  9 Independent No College Degree            Strongly agree     2.57 0.162
#> 10 Independent No College Degree            Somewhat agree     8.42 0.530
#> # ℹ 14 more rows

# also works when the arguments are strings
get_freqs(test_data, "big_events", group = c("pid_f3", "edu_f2"), wt = "wts")
#> # A tibble: 24 × 5
#> # Groups:   pid_f3, edu_f2 [6]
#>    pid_f3      edu_f2                       big_events            n   pct
#>    <fct>       <fct>                        <fct>             <dbl> <dbl>
#>  1 Democrat    No College Degree            Strongly agree    14.1  0.203
#>  2 Democrat    No College Degree            Somewhat agree    16.4  0.236
#>  3 Democrat    No College Degree            Somewhat disagree 27.9  0.401
#>  4 Democrat    No College Degree            Strongly disagree 11.2  0.160
#>  5 Democrat    At Least a Bachelor's Degree Strongly agree     8.01 0.183
#>  6 Democrat    At Least a Bachelor's Degree Somewhat agree     6.16 0.141
#>  7 Democrat    At Least a Bachelor's Degree Somewhat disagree 13.2  0.302
#>  8 Democrat    At Least a Bachelor's Degree Strongly disagree 16.3  0.373
#>  9 Independent No College Degree            Strongly agree     2.57 0.162
#> 10 Independent No College Degree            Somewhat agree     8.42 0.530
#> # ℹ 14 more rows
…
