Convert a labelled vector into a factor — make_factor • adlgraphs
…
    Examples

library(adlgraphs)
library(dplyr)

# let's make a new variable and data set
new_df <- test_data %>%
  # convert top into a factor
  mutate(top_f = make_factor(top))

# compare the "top_f" to "top"
new_df %>% select(top, top_f)
#> # A tibble: 250 × 2
#>    top                   top_f            
#>    <dbl+lbl>             <fct>            
#>  1 4 [Strongly disagree] Strongly disagree
#>  2 4 [Strongly disagree] Strongly disagree
#>  3 3 [Somewhat disagree] Somewhat disagree
#>  4 1 [Strongly agree]    Strongly agree   
#>  5 3 [Somewhat disagree] Somewhat disagree
#>  6 4 [Strongly disagree] Strongly disagree
#>  7 3 [Somewhat disagree] Somewhat disagree
#>  8 3 [Somewhat disagree] Somewhat disagree
#>  9 4 [Strongly disagree] Strongly disagree
#> 10 3 [Somewhat disagree] Somewhat disagree
#> # ℹ 240 more rows
…
