…
# Check a labelled variable -------------------------------------------------

# convert "top" into a dichotomous factor
new_df <- test_data %>%
  mutate(top_f2 = make_dicho(top)) %>%
  # keep only two relevant variables
  select(top, top_f2)

# compare "top" to "top_f2"
# we can see all response with "agree" in the name are now "agree" and
# all those with "disagree" are now "disagree"
new_df
#> # A tibble: 250 × 2
#>    top                   top_f2  
#>    <dbl+lbl>             <fct>   
#>  1 1 [Strongly agree]    Agree   
#>  2 2 [Somewhat agree]    Agree   
#>  3 2 [Somewhat agree]    Agree   
#>  4 3 [Somewhat disagree] Disagree
#>  5 2 [Somewhat agree]    Agree   
#>  6 4 [Strongly disagree] Disagree
#>  7 2 [Somewhat agree]    Agree   
#>  8 2 [Somewhat agree]    Agree   
#>  9 2 [Somewhat agree]    Agree   
#> 10 4 [Strongly disagree] Disagree
#> # ℹ 240 more rows
…
# Check a factor variable ---------------------------------------------------
new_df <- test_data %>%
  mutate(
    # convert it to a factor
    top_f = make_factor(top),
    # convert the dichotomous factor
    top_f2 = make_dicho(top_f)
  ) %>%
  # select the three variables to compare them
  select(top, top_f, top_f2)

# compare the three variables
new_df
#> # A tibble: 250 × 3
#>    top                   top_f             top_f2  
#>    <dbl+lbl>             <fct>             <fct>   
#>  1 1 [Strongly agree]    Strongly agree    Agree   
#>  2 2 [Somewhat agree]    Somewhat agree    Agree   
#>  3 2 [Somewhat agree]    Somewhat agree    Agree   
#>  4 3 [Somewhat disagree] Somewhat disagree Disagree
#>  5 2 [Somewhat agree]    Somewhat agree    Agree   
#>  6 4 [Strongly disagree] Strongly disagree Disagree
#>  7 2 [Somewhat agree]    Somewhat agree    Agree   
#>  8 2 [Somewhat agree]    Somewhat agree    Agree   
#>  9 2 [Somewhat agree]    Somewhat agree    Agree   
#> 10 4 [Strongly disagree] Strongly disagree Disagree
#> # ℹ 240 more rows
…
# let's do the same thing but let's flip the levels now
new_df <- test_data %>%
  mutate(
    # show it without flipping the levels
    top_f2 = make_dicho(top),
    # show it with the levels being flipped
    top_f2_flip = make_dicho(top, flip_levels = TRUE)
  ) %>%
  # keep only relevant variables
  select(top, top_f2, top_f2_flip)

# compare them
new_df
#> # A tibble: 250 × 3
#>    top                   top_f2   top_f2_flip
#>    <dbl+lbl>             <fct>    <fct>      
#>  1 1 [Strongly agree]    Agree    Agree      
#>  2 2 [Somewhat agree]    Agree    Agree      
#>  3 2 [Somewhat agree]    Agree    Agree      
#>  4 3 [Somewhat disagree] Disagree Disagree   
#>  5 2 [Somewhat agree]    Agree    Agree      
#>  6 4 [Strongly disagree] Disagree Disagree   
#>  7 2 [Somewhat agree]    Agree    Agree      
#>  8 2 [Somewhat agree]    Agree    Agree      
#>  9 2 [Somewhat agree]    Agree    Agree      
#> 10 4 [Strongly disagree] Disagree Disagree   
#> # ℹ 240 more rows
…
# show that the function worked properly by creating two new sets of variables
new_df
#> # A tibble: 250 × 9
#>    edu_f2                top_f2 inferior_f2 dominate_f2 deserving_f2 top_f2_flip
#>    <fct>                 <fct>  <fct>       <fct>       <fct>        <fct>      
#>  1 No College Degree     Agree  Disagree    Agree       Agree        Agree      
#>  2 No College Degree     Agree  Disagree    Agree       Agree        Agree      
#>  3 At Least a Bachelor'… Agree  Agree       Agree       Agree        Agree      
#>  4 No College Degree     Disag… Disagree    Agree       Agree        Disagree   
#>  5 No College Degree     Agree  Disagree    Agree       Disagree     Agree      
#>  6 At Least a Bachelor'… Disag… Disagree    Agree       Agree        Disagree   
#>  7 At Least a Bachelor'… Agree  Disagree    Agree       Agree        Agree      
#>  8 At Least a Bachelor'… Agree  Disagree    Agree       Agree        Agree      
#>  9 No College Degree     Agree  Disagree    Disagree    Agree        Agree      
#> 10 No College Degree     Disag… Disagree    Agree       Agree        Disagree   
#> # ℹ 240 more rows
#> # ℹ 3 more variables: inferior_f2_flip <fct>, dominate_f2_flip <fct>,
#> #   deserving_f2_flip <fct>
…
