…
## Examples

``` r
library(adlgraphs)
library(dplyr)

# let's make a new variable and data set
new_df <- test_data %>%
  # convert top into a factor
  mutate(top_f = make_factor(top))

# compare the "top_f" to "top"
new_df %>% select(top, top_f)
#> # A tibble: 250 × 2
#>    top                   top_f            
#>    <dbl+lbl>             <fct>            
#>  1 1 [Strongly agree]    Strongly agree   
#>  2 2 [Somewhat agree]    Somewhat agree   
#>  3 2 [Somewhat agree]    Somewhat agree   
#>  4 3 [Somewhat disagree] Somewhat disagree
#>  5 2 [Somewhat agree]    Somewhat agree   
#>  6 4 [Strongly disagree] Strongly disagree
#>  7 2 [Somewhat agree]    Somewhat agree   
#>  8 2 [Somewhat agree]    Somewhat agree   
#>  9 2 [Somewhat agree]    Somewhat agree   
#> 10 4 [Strongly disagree] Strongly disagree
#> # ℹ 240 more rows
…
