Calculate weighted frequencies — get_freqs • adlgraphs
…
# you can also pipe in the `df` argument if you want to do some data
# transformations before you calculate the means. For example, say you want
# to compare the frequencies of `big_events` among people who agreed vs
# disagreed with the variable `top`:
test_data %>%
  mutate(top_f2 = make_dicho(top)) %>%
  get_freqs(trad_n, top_f2, wts)
#> # A tibble: 29 × 4
#> # Groups:   top_f2 [2]
#>    top_f2 trad_n     n    pct
#>  * <fct>   <dbl> <dbl>  <dbl>
#>  1 Agree       0   4.9 0.0512
#>  2 Agree       1  10.4 0.107 
#>  3 Agree       2  13.9 0.144 
#>  4 Agree       3  11.2 0.116 
#>  5 Agree       4  11.4 0.118 
#>  6 Agree       5   2.4 0.0253
#>  7 Agree       6   8.4 0.0871
#>  8 Agree       7   2.6 0.0267
#>  9 Agree       8   3.1 0.0326
#> 10 Agree       9   5.9 0.0614
#> # ℹ 19 more rows
…
