How to Use the `adl_bar_plots` function • adlgraphs
…
Occasionally, we also do vertically dodged bar plots. As I mentioned
above, we’ll use these when the axis labels are not large. For example,
comparing the percentage of people endorsing different numbers of
tropes/statements. Another example, comparing the average score for two
measures across a group. I’ll demonstrate both examples below.

test_data %>% 
  mutate(acts_avg = structure(acts_avg, label = "American Conspiracy Thinking Scale")) %>% 
  pivot_longer_values(
    cols = c(acts_avg, sdo_avg),
    names_to = "variables",
    values_to = "score"
  ) 
#> # A tibble: 500 × 28
#>    resp_id   wts edu          edu_f2 pid_f3  top     inferior dominate deserving
#>      <int> <dbl> <dbl+lbl>    <fct>  <dbl+l> <dbl+l> <dbl+lb> <dbl+lb> <dbl+lbl>
#>  1       1 0.937 4 [Bachelor… At Le… 1 [Dem… 4 [Str… 4 [Stro… 1 [Stro… 1 [Stron…
#>  2       1 0.937 4 [Bachelor… At Le… 1 [Dem… 4 [Str… 4 [Stro… 1 [Stro… 1 [Stron…
#>  3       2 0.303 5 [Graduate… At Le… 2 [Ind… 3 [Som… 3 [Some… 3 [Some… 3 [Somew…
#>  4       2 0.303 5 [Graduate… At Le… 2 [Ind… 3 [Som… 3 [Some… 3 [Some… 3 [Somew…
#>  5       3 0.937 4 [Bachelor… At Le… 1 [Dem… 2 [Som… 3 [Some… 2 [Some… 2 [Somew…
#>  6       3 0.937 4 [Bachelor… At Le… 1 [Dem… 2 [Som… 3 [Some… 2 [Some… 2 [Somew…
#>  7       4 0.408 3 [Some Col… No Co… 2 [Ind… 4 [Str… 3 [Some… 1 [Stro… 1 [Stron…
#>  8       4 0.408 3 [Some Col… No Co… 2 [Ind… 4 [Str… 3 [Some… 1 [Stro… 1 [Stron…
#>  9       5 0.627 5 [Graduate… At Le… 3 [Rep… 4 [Str… 4 [Stro… 1 [Stro… 1 [Stron…
#> 10       5 0.627 5 [Graduate… At Le… 3 [Rep… 4 [Str… 4 [Stro… 1 [Stro… 1 [Stron…
#> # ℹ 490 more rows
#> # ℹ 19 more variables: special <dbl+lbl>, harder <dbl+lbl>,
#> #   controlled <dbl+lbl>, small <dbl+lbl>, run <dbl+lbl>, big_events <dbl+lbl>,
#> #   accept_hamas <dbl+lbl>, accept_isr <dbl+lbl>, dislike_jews <dbl+lbl>,
#> #   stick_together <dbl+lbl>, values <dbl+lbl>, head <dbl+lbl>,
#> #   loyal <dbl+lbl>, business_power <dbl+lbl>, wall_street <dbl+lbl>,
#> #   trad_n <dbl>, edu_f <fct>, variables <chr+lbl>, score <dbl>
…
